<svg width="100" height="100" viewBox="0 0 100 100" version="1.1" xmlns="http://www.w3.org/2000/svg" xmlns:xlink="http://www.w3.org/1999/xlink">
	<title>Group</title>
	<desc>Created using Figma</desc>
	<g id="Canvas" transform="translate(51 123)">
		<g id="Group">
			<g id="Ellipse">
				<mask id="mask0_outline_ins">
					<use xlink:href="#path0_fill" fill="white" transform="translate(-51 -123)"/>
				</mask>
				<g mask="url(#mask0_outline_ins)" fill="url(#g1)">
					<use xlink:href="#path1_stroke_2x" transform="translate(-51 -123)"/>
				</g>
			</g>
			<g id="Polygon">
				<mask id="mask1_outline_ins">
					<use xlink:href="#path2_fill" fill="white" transform="matrix(6.12323e-17 1 -1 6.12323e-17 24 -98)"/>
				</mask>
				<g mask="url(#mask1_outline_ins)" fill="url(#g1)">
					<use xlink:href="#path3_stroke_2x" transform="matrix(6.12323e-17 1 -1 6.12323e-17 24 -98)"/>
				</g>
			</g>
		</g>
	</g>
	<defs>
		<defs>
			<linearGradient id="g1" gradientUnits="userSpaceOnUse" x1="-9.15%" y1="84.15%" x2="109.15%" y2="15.85%">
				<stop stop-color="#f79533"/>
				<stop offset=".14" stop-color="#f37055"/>
				<stop offset=".29" stop-color="#ef4e7b"/>
				<stop offset=".43" stop-color="#a166ab"/>
				<stop offset=".57" stop-color="#5073b8"/>
				<stop offset=".71" stop-color="#1098ad"/>
				<stop offset=".86" stop-color="#07b39b"/>
				<stop offset="1" stop-color="#6fba82"/>
			</linearGradient>
		</defs>
		<path id="path0_fill" d="M 100 50C 100 77.6142 77.6142 100 50 100C 22.3858 100 0 77.6142 0 50C 0 22.3858 22.3858 0 50 0C 77.6142 0 100 22.3858 100 50Z"/>
		<path
			id="path1_stroke_2x"
			d="M 99 50C 99 77.062 77.062 99 50 99L 50 101C 78.1665 101 101 78.1665 101 50L 99 50ZM 50 99C 22.938 99 1 77.062 1 50L -1 50C -1 78.1665 21.8335 101 50 101L 50 99ZM 1 50C 1 22.938 22.938 1 50 1L 50 -1C 21.8335 -1 -1 21.8335 -1 50L 1 50ZM 50 1C 77.062 1 99 22.938 99 50L 101 50C 101 21.8335 78.1665 -1 50 -1L 50 1Z"/>
		<path id="path2_fill" d="M 21.5359 6C 23.0755 3.33333 26.9245 3.33333 28.4641 6L 43.1865 31.5C 44.7261 34.1667 42.8016 37.5 39.7224 37.5L 10.2776 37.5C 7.19837 37.5 5.27387 34.1667 6.81347 31.5L 21.5359 6Z"/>
		<path
			id="path3_stroke_2x"
			d="M 28.4641 6L 27.5981 6.5L 28.4641 6ZM 43.1865 31.5L 44.0526 31L 43.1865 31.5ZM 39.7224 37.5L 39.7224 36.5L 39.7224 37.5ZM 27.5981 6.5L 42.3205 32L 44.0526 31L 29.3301 5.5L 27.5981 6.5ZM 39.7224 36.5L 10.2776 36.5L 10.2776 38.5L 39.7224 38.5L 39.7224 36.5ZM 7.67949 32L 22.4019 6.5L 20.6699 5.5L 5.94744 31L 7.67949 32ZM 29.3301 5.5C 27.4056 2.16667 22.5944 2.16667 20.6699 5.5L 22.4019 6.5C 23.5566 4.5 26.4434 4.5 27.5981 6.5L 29.3301 5.5ZM 42.3205 32C 43.4752 34 42.0318 36.5 39.7224 36.5L 39.7224 38.5C 43.5714 38.5 45.9771 34.3333 44.0526 31L 42.3205 32ZM 10.2776 36.5C 7.96817 36.5 6.52479 34 7.67949 32L 5.94744 31C 4.02294 34.3333 6.42857 38.5 10.2776 38.5L 10.2776 36.5Z"/>
	</defs>
</svg>
